id,code,prize_id,status_id
1,CFDJXPBAIHFFJXHZ,1,1
2,KHXCSTHHZVAJSZTY,1,1
3,VWPLSMRRDUTEJFYT,1,1
4,QOPBIPERKMOPLHWW,1,1
5,XWVNOWJZVOLBMBGJ,1,1
6,RVXFENCMXIQLJOAH,1,1
7,WHCFEXZHPHTVRLQR,1,1
8,AKIGMXTOTTZFWFBS,1,1
9,ASRBZTRBQJLAUMZR,1,1
10,NDTFHDLFUYFDIWFG,2,1
11,DPMRRGVGIKDGHNEY,2,1
12,YFYIGHAVMTTJIUQO,2,1
13,DKRYQTITRWPHTSYR,2,1
14,COEDJGXCQXRQQTWR,2,1
15,DQGUDCRHLRTBWZGZ,2,1
16,NCJFMUOUMKDVBNRI,2,1
17,XTPVJETPVIRGZNQX,2,1
18,XMXQMOJTNMKOOOYJ,2,1
19,RQTBWROILPYYKQOJ,2,1
20,ACKJVPZRLKEFRZPU,,1
21,IJXFCEWDPUADZCPC,,1
22,YMJTNDBFFGUTCMJB,,1
23,TBUWFHPJDDGPMZMD,,1
24,VJFHZBSCFDZXUPEX,,1
25,KMAQHJYZEVFTIACO,,1
26,VZCPEAQLMAZQLMGU,,1
27,OSDPPCBRPRJJVWPS,,1
28,JDHPAPPHJEQFFDWT,,1
29,FPWFSIHMQXQUUFUX,,1
30,ULOMJHBSMPZXHMOG,,1
31,BLVAUEPTZUZOJVFP,,1
32,LUMGVTPPKXWTPHZP,,1
33,BTGWFZSGWYYAXXKW,,1
34,VPZTIWJSPMLJZOYI,,1
35,BHJSZLBKLTMHPHNO,,1
36,ZSRPQTWYTQBJVXNV,,1
37,ICKOSGOKZZZBCWUR,,1
38,VXVTHVQIYNXZQXQM,,1
39,FCKURAZRICYCNIUS,,1
40,MKQEZIKWSRCDMLYR,,1
41,KFIPHIGTYQEMNIXQ,,1
42,MWTXISOUNOXDPPBL,,1
43,HOGRMXRBYYNHRAYG,,1
44,OYEEBWBFENNHTBMF,,1
45,WWLJKEQABZMALSAG,,1
46,GTUMNJHQSSJYKJML,,1
47,GFDJNYALUTDGRUOF,,1
48,QRTFHLWUWOYYSQFS,,1
49,QSDOISCFCPXFLOGR,,1
50,LBLDYAFVJNBYYKSZ,,1